riscv_core_project/dump.vcd
$date
	Thu Feb  5 23:05:01 2026
$end
$version
	Icarus Verilog
$end
$timescale
	1s
$end
$scope module tb_riscv_soc $end
$var wire 1 ! uart_tx $end
$var wire 1 " spi_sck $end
$var wire 1 # spi_mosi $end
$var wire 1 $ spi_cs $end
$var wire 1 % irq $end
$var wire 16 & gpio_out [15:0] $end
$var wire 16 ' gpio_oe [15:0] $end
$var wire 32 ( debug_pc [31:0] $end
$var wire 32 ) debug_instr [31:0] $end
$var reg 1 * clk $end
$var reg 16 + gpio_in [15:0] $end
$var reg 1 , rst $end
$var reg 1 - spi_miso $end
$var reg 1 . uart_rx $end
$var integer 32 / i [31:0] $end
$var integer 32 0 test_num [31:0] $end
$scope module dut $end
$var wire 1 * clk $end
$var wire 32 1 debug_instr [31:0] $end
$var wire 32 2 debug_pc [31:0] $end
$var wire 16 3 gpio_in [15:0] $end
$var wire 16 4 gpio_oe [15:0] $end
$var wire 16 5 gpio_out [15:0] $end
$var wire 1 6 power_good $end
$var wire 1 , rst $end
$var wire 1 - spi_miso $end
$var wire 1 7 sys_rst $end
$var wire 1 8 timer_irq $end
$var wire 32 9 timer_rdata [31:0] $end
$var wire 1 . uart_rx $end
$var wire 1 : vcc $end
$var wire 1 ; vdd $end
$var wire 1 < vss $end
$var wire 1 = uart_tx_ready $end
$var wire 1 ! uart_tx $end
$var wire 1 > uart_rx_valid $end
$var wire 8 ? uart_rx_data [7:0] $end
$var wire 32 @ uart_rdata [31:0] $end
$var wire 1 " spi_sck $end
$var wire 8 A spi_rx_data [7:0] $end
$var wire 32 B spi_rdata [31:0] $end
$var wire 1 # spi_mosi $end
$var wire 1 $ spi_cs $end
$var wire 1 C spi_busy $end
$var wire 1 % irq $end
$var wire 8 D interrupt_sources [7:0] $end
$var wire 32 E intc_rdata [31:0] $end
$var wire 32 F gpio_rdata [31:0] $end
$var wire 1 G cs_uart $end
$var wire 1 H cs_timer $end
$var wire 1 I cs_spi $end
$var wire 1 J cs_intc $end
$var wire 1 K cs_imem $end
$var wire 1 L cs_gpio $end
$var wire 1 M cs_dmem $end
$var wire 1 N cpu_reg_write $end
$var wire 32 O cpu_rd_data [31:0] $end
$var wire 5 P cpu_rd_addr [4:0] $end
$var wire 32 Q cpu_pc [31:0] $end
$var wire 1 R cpu_imem_valid $end
$var wire 32 S cpu_imem_rdata [31:0] $end
$var wire 32 T cpu_imem_addr [31:0] $end
$var wire 4 U cpu_dmem_we [3:0] $end
$var wire 32 V cpu_dmem_wdata [31:0] $end
$var wire 1 W cpu_dmem_valid $end
$var wire 32 X cpu_dmem_rdata [31:0] $end
$var wire 32 Y cpu_dmem_addr [31:0] $end
$var reg 32 Z dmem_rdata [31:0] $end
$var reg 16 [ gpio_output [15:0] $end
$var reg 16 \ gpio_output_enable [15:0] $end
$var reg 32 ] imem_rdata [31:0] $end
$var reg 8 ^ interrupt_enable [7:0] $end
$var reg 8 _ interrupt_pending [7:0] $end
$var reg 32 ` peripheral_rdata [31:0] $end
$var reg 1 a spi_start $end
$var reg 8 b spi_tx_data [7:0] $end
$var reg 32 c timer_compare [31:0] $end
$var reg 32 d timer_counter [31:0] $end
$var reg 1 e timer_enable $end
$var reg 8 f uart_tx_data [7:0] $end
$var reg 1 g uart_tx_start $end
$var integer 32 h i [31:0] $end
$scope module cpu $end
$var wire 1 * clk $end
$var wire 32 i dmem_rdata [31:0] $end
$var wire 32 j imem_data [31:0] $end
$var wire 1 , rst $end
$var wire 5 k rs2 [4:0] $end
$var wire 5 l rs1 [4:0] $end
$var wire 5 m rd [4:0] $end
$var wire 7 n opcode [6:0] $end
$var wire 7 o funct7 [6:0] $end
$var wire 3 p funct3 [2:0] $end
$var parameter 4 q ALU_ADD $end
$var parameter 4 r ALU_AND $end
$var parameter 4 s ALU_OR $end
$var parameter 4 t ALU_SLL $end
$var parameter 4 u ALU_SLT $end
$var parameter 4 v ALU_SLTU $end
$var parameter 4 w ALU_SRA $end
$var parameter 4 x ALU_SRL $end
$var parameter 4 y ALU_SUB $end
$var parameter 4 z ALU_XOR $end
$var reg 32 { alu_a [31:0] $end
$var reg 32 | alu_a_signed [31:0] $end
$var reg 32 } alu_add [31:0] $end
$var reg 32 ~ alu_and [31:0] $end
$var reg 32 !" alu_b [31:0] $end
$var reg 32 "" alu_b_signed [31:0] $end
$var reg 4 #" alu_op [3:0] $end
$var reg 32 $" alu_or [31:0] $end
$var reg 32 %" alu_result [31:0] $end
$var reg 32 &" alu_sll [31:0] $end
$var reg 32 '" alu_slt [31:0] $end
$var reg 32 (" alu_sltu [31:0] $end
$var reg 32 )" alu_sra [31:0] $end
$var reg 32 *" alu_srl [31:0] $end
$var reg 32 +" alu_sub [31:0] $end
$var reg 32 ," alu_xor [31:0] $end
$var reg 1 -" beq $end
$var reg 1 ." bge $end
$var reg 1 /" bgeu $end
$var reg 1 0" blt $end
$var reg 1 1" bltu $end
$var reg 1 2" bne $end
$var reg 1 3" branch_taken $end
$var reg 32 4" branch_target [31:0] $end
$var reg 32 5" dmem_addr [31:0] $end
$var reg 1 W dmem_valid $end
$var reg 32 6" dmem_wdata [31:0] $end
$var reg 4 7" dmem_we [3:0] $end
$var reg 32 8" ex_mem_alu_result [31:0] $end
$var reg 1 9" ex_mem_branch_taken $end
$var reg 32 :" ex_mem_branch_target [31:0] $end
$var reg 3 ;" ex_mem_funct3 [2:0] $end
$var reg 7 <" ex_mem_opcode [6:0] $end
$var reg 5 =" ex_mem_rd [4:0] $end
$var reg 32 >" ex_mem_rs2_data [31:0] $end
$var reg 1 ?" ex_mem_valid $end
$var reg 1 @" flush $end
$var reg 2 A" forward_a [1:0] $end
$var reg 2 B" forward_b [1:0] $end
$var reg 32 C" fwd_ex_mem [31:0] $end
$var reg 32 D" fwd_mem_wb [31:0] $end
$var reg 3 E" id_ex_funct3 [2:0] $end
$var reg 7 F" id_ex_funct7 [6:0] $end
$var reg 32 G" id_ex_imm [31:0] $end
$var reg 7 H" id_ex_opcode [6:0] $end
$var reg 32 I" id_ex_pc [31:0] $end
$var reg 5 J" id_ex_rd [4:0] $end
$var reg 5 K" id_ex_rs1 [4:0] $end
$var reg 32 L" id_ex_rs1_data [31:0] $end
$var reg 5 M" id_ex_rs2 [4:0] $end
$var reg 32 N" id_ex_rs2_data [31:0] $end
$var reg 1 O" id_ex_valid $end
$var reg 32 P" if_id_instruction [31:0] $end
$var reg 32 Q" if_id_pc [31:0] $end
$var reg 1 R" if_id_valid $end
$var reg 32 S" imem_addr [31:0] $end
$var reg 1 R imem_valid $end
$var reg 32 T" imm [31:0] $end
$var reg 32 U" imm_b [31:0] $end
$var reg 32 V" imm_i [31:0] $end
$var reg 32 W" imm_j [31:0] $end
$var reg 32 X" imm_s [31:0] $end
$var reg 32 Y" imm_u [31:0] $end
$var reg 32 Z" mem_wb_alu_result [31:0] $end
$var reg 32 [" mem_wb_mem_data [31:0] $end
$var reg 7 \" mem_wb_opcode [6:0] $end
$var reg 5 ]" mem_wb_rd [4:0] $end
$var reg 1 ^" mem_wb_valid $end
$var reg 32 _" pc [31:0] $end
$var reg 32 `" pc_next [31:0] $end
$var reg 32 a" pc_out [31:0] $end
$var reg 5 b" rd_addr [4:0] $end
$var reg 32 c" rd_data [31:0] $end
$var reg 1 N reg_write $end
$var reg 32 d" rs1_data_fwd [31:0] $end
$var reg 32 e" rs1_signed [31:0] $end
$var reg 32 f" rs2_data_fwd [31:0] $end
$var reg 32 g" rs2_signed [31:0] $end
$var reg 1 h" stall $end
$var integer 32 i" i [31:0] $end
$upscope $end
$scope module spi_inst $end
$var wire 1 * clk $end
$var wire 1 - miso $end
$var wire 1 , rst $end
$var wire 1 a start $end
$var wire 8 j" tx_data [7:0] $end
$var parameter 3 k" DONE $end
$var parameter 3 l" IDLE $end
$var parameter 32 m" SPI_CLK_DIV $end
$var parameter 3 n" TRANSFER $end
$var reg 4 o" bit_count [3:0] $end
$var reg 1 C busy $end
$var reg 8 p" clk_count [7:0] $end
$var reg 1 $ cs $end
$var reg 1 # mosi $end
$var reg 8 q" rx_data [7:0] $end
$var reg 8 r" rx_shift [7:0] $end
$var reg 1 " sck $end
$var reg 3 s" state [2:0] $end
$var reg 8 t" tx_shift [7:0] $end
$upscope $end
$scope module uart_inst $end
$var wire 1 * clk $end
$var wire 1 , rst $end
$var wire 1 . rx $end
$var wire 8 u" tx_data [7:0] $end
$var wire 1 g tx_start $end
$var parameter 32 v" BAUD_RATE $end
$var parameter 32 w" CLKS_PER_BIT $end
$var parameter 32 x" CLOCK_FREQ $end
$var parameter 3 y" RX_DATA $end
$var parameter 3 z" RX_IDLE $end
$var parameter 3 {" RX_START $end
$var parameter 3 |" RX_STOP $end
$var parameter 3 }" TX_DATA $end
$var parameter 3 ~" TX_IDLE $end
$var parameter 3 !# TX_START $end
$var parameter 3 "# TX_STOP $end
$var reg 3 ## rx_bit_index [2:0] $end
$var reg 16 $# rx_clk_count [15:0] $end
$var reg 8 %# rx_data [7:0] $end
$var reg 8 &# rx_shift_reg [7:0] $end
$var reg 3 '# rx_state [2:0] $end
$var reg 1 (# rx_sync1 $end
$var reg 1 )# rx_sync2 $end
$var reg 1 > rx_valid $end
$var reg 1 ! tx $end
$var reg 3 *# tx_bit_index [2:0] $end
$var reg 16 +# tx_clk_count [15:0] $end
$var reg 1 = tx_ready $end
$var reg 8 ,# tx_shift_reg [7:0] $end
$var reg 3 -# tx_state [2:0] $end
$upscope $end
$upscope $end
$upscope $end
$enddefinitions $end
$comment Show the parameter values. $end
$dumpall
b11 "#
b1 !#
b0 ~"
b10 }"
b11 |"
b1 {"
b0 z"
b10 y"
b101111101011110000100000000 x"
b1101100100 w"
b11100001000000000 v"
b1 n"
b100 m"
b0 l"
b10 k"
b101 z
b1 y
b110 x
b111 w
b100 v
b11 u
b10 t
b1000 s
b1001 r
b0 q
$end
#0
$dumpvars
b0 -#
bx ,#
b0 +#
b0 *#
1)#
1(#
b0 '#
bx &#
bx %#
b0 $#
b0 ##
bx u"
bx t"
b0 s"
bx r"
bx q"
b0 p"
b0 o"
bx j"
b100000 i"
0h"
b0 g"
b0 f"
b0 e"
b0 d"
b0 c"
b0 b"
b0 a"
b100 `"
b0 _"
0^"
b0 ]"
b0 \"
b0 ["
b0 Z"
b0 Y"
b0 X"
b0 W"
b0 V"
b0 U"
b0 T"
bx S"
0R"
b0 Q"
b0 P"
0O"
b0 N"
b0 M"
b0 L"
b0 K"
b0 J"
b0 I"
b0 H"
b0 G"
b0 F"
b0 E"
b0 D"
b0 C"
b0 B"
b0 A"
0@"
0?"
b0 >"
b0 ="
b0 <"
b0 ;"
b0 :"
09"
b0 8"
b0 7"
bx 6"
bx 5"
b0 4"
03"
02"
01"
00"
1/"
1."
1-"
b0 ,"
b0 +"
b0 *"
b0 )"
b0 ("
b0 '"
b0 &"
b0 %"
b0 $"
b0 #"
b0 ""
b0 !"
b0 ~
b0 }
b0 |
b0 {
b0 p
b0 o
b0 n
b0 m
b0 l
b0 k
bx j
bx i
b100000000000 h
xg
bx f
0e
b0 d
b11111111111111111111111111111111 c
bx b
xa
b0 `
b0 _
b0 ^
bx ]
b0 \
b0 [
bx Z
bx Y
bx X
0W
bx V
b0 U
bx T
bx S
0R
b0 Q
b0 P
b0 O
0N
xM
xL
xK
xJ
xI
xH
xG
b0 F
b0 E
b0 D
0C
b0xxxxxxxx B
bx A
b1xxxxxxxx @
bx ?
0>
1=
z<
z;
z:
b0 9
08
17
06
b0 5
b0 4
b0 3
b0 2
bx 1
b0 0
bx /
1.
0-
1,
b0 +
0*
bx )
b0 (
b0 '
b0 &
0%
1$
0#
0"
1!
$end
#5
0g
0a
b100000 i"
1*
#10
0*
#15
b100000 i"
1*
#20
0*
b1 0
0,
#25
1K
bx0 W"
bx000000000000 Y"
bx0 U"
bx X"
bx V"
bx n
bx m
bx p
bx l
bx k
bx o
b100 (
b100 2
b100 Q
b100 a"
b1000 `"
bx ["
1R
b0 T
b0 S"
1R"
bx P"
b100 _"
1*
#30
0*
#35
b1000 (
b1000 2
b1000 Q
b1000 a"
b1100 `"
bx f"
bx d"
x/"
x1"
x."
x0"
x2"
x-"
bx g"
bx e"
bx %"
bx ~
bx $"
bx )"
bx *"
bx ,"
b0x ("
b0x '"
bx ""
bx |
bx &"
bx +"
bx }
bx !"
bx {
b100 T
b100 S"
b100 Q"
b1000 _"
1O"
bx F"
bx E"
bx H"
bx M"
bx K"
bx J"
bx N"
bx L"
b1010101000000000000010010011 )
b1010101000000000000010010011 1
b1010101000000000000010010011 S
b1010101000000000000010010011 ]
b1010101000000000000010010011 j
1*
#40
0*
#45
bx C"
b100 4"
b10101010 T"
b10101010 W"
b1010101000000000000000000000 Y"
b100010100000 U"
b10100001 X"
b10101010 V"
b10011 n
b1 m
b0 p
b0 l
b1010 k
b101 o
b1100 (
b1100 2
b1100 Q
b1100 a"
b10000 `"
1?"
bx ;"
bx <"
bx ="
bx >"
bx 8"
b100 I"
b1000 T
b1000 S"
b1010101000000000000010010011 P"
b1000 Q"
b1100 _"
b10000000000000000000100110111 )
b10000000000000000000100110111 1
b10000000000000000000100110111 S
b10000000000000000000100110111 ]
b10000000000000000000100110111 j
1*
#50
0*
#55
b10000000000000000000000000000 T"
b100000000 W"
b10000000000000000000000000000 Y"
b100000010 U"
b100000010 X"
b100000000 V"
b110111 n
b10 m
b0 k
b1000 o
b10100 `"
b10101010 %"
b0 ~
b10101010 $"
b0 )"
b0 *"
b10101010 ,"
b1 ("
b1 '"
b10101010 ""
b0 |
b0 &"
b11111111111111111111111101010110 +"
b10101010 }
b10101010 !"
b0 {
b10110010 4"
1/"
01"
1."
00"
02"
1-"
b0 g"
b0 e"
bx O
bx c"
bx P
bx b"
b10000 (
b10000 2
b10000 Q
b10000 a"
b0 f"
b0 d"
bx D"
b1100 T
b1100 S"
b10000000000000000000100110111 P"
b1100 Q"
b10000 _"
b101 F"
b0 E"
b10011 H"
b1010 M"
b0 K"
b1 J"
b10101010 G"
b0 N"
b0 L"
b1000 I"
b100 :"
1^"
bx \"
bx ]"
bx Z"
b10000000010000000100010011 )
b10000000010000000100010011 1
b10000000010000000100010011 S
b10000000010000000100010011 ]
b10000000010000000100010011 j
1*
#60
0*
#65
b10101010 C"
b0 %"
b0 $"
b0 ,"
b0 ("
b0 '"
b0 ""
b0 +"
b0 }
b0 !"
b10000000000000000000000001100 4"
b100000 T"
b10000000000100000 W"
b10000000010000000000000000 Y"
b100010 U"
b100010 X"
b100000 V"
b10011 n
b10 l
b1 o
b10100 (
b10100 2
b10100 Q
b10100 a"
b11000 `"
b10110010 :"
b0 ;"
b10011 <"
b1 ="
b0 >"
b10101010 8"
b1000 F"
b110111 H"
b0 M"
b10 J"
b10000000000000000000000000000 G"
b1100 I"
b10000 T
b10000 S"
b10000000010000000100010011 P"
b10000 Q"
b10100 _"
b100010010000000100011 )
b100010010000000100011 1
b100010010000000100011 S
b100010010000000100011 ]
b100010010000000100011 j
1*
#70
0*
#75
b0 T"
b10010100000000000 W"
b100010010000000000000 Y"
b0 U"
b0 X"
b1 V"
b100011 n
b0 m
b10 p
b1 k
b0 o
b11100 `"
b100000 %"
b100000 $"
b100000 ,"
b1 ("
b1 '"
b100000 ""
b11111111111111111111111111100000 +"
b100000 }
b100000 !"
b110000 4"
b10101010 O
b10101010 c"
b1 P
b1 b"
b11000 (
b11000 2
b11000 Q
b11000 a"
b10 A"
b10101010 D"
b0 C"
b10100 T
b10100 S"
b100010010000000100011 P"
b10100 Q"
b11000 _"
b1 F"
b10011 H"
b10 K"
b100000 G"
b10000 I"
b10000000000000000000000001100 :"
b110111 <"
b10 ="
b0 8"
b10011 \"
b1 ]"
b10101010 Z"
b10000000000000000000110110111 )
b10000000000000000000110110111 1
b10000000000000000000110110111 S
b10000000000000000000110110111 ]
b10000000000000000000110110111 j
1*
#80
0*
#85
b100000 d"
b0 D"
b100000 C"
b0 %"
b0 $"
b0 ,"
b0 ("
b0 '"
b0 ""
b0 +"
b0 }
b11 #"
b0 !"
b10100 4"
b10000000000000000000000000000 T"
b100000000 W"
b10000000000000000000000000000 Y"
b100100000010 U"
b100000011 X"
b100000000 V"
b110111 n
b11 m
b0 p
b0 l
b0 k
b1000 o
b0 O
b0 c"
b10 P
b10 b"
b11100 (
b11100 2
b11100 Q
b11100 a"
b100000 `"
1N
b110111 \"
b10 ]"
b0 Z"
b110000 :"
b10011 <"
b100000 8"
b0 F"
b10 E"
b100011 H"
b1 M"
b0 J"
b0 G"
b10100 I"
b11000 T
b11000 S"
b10000000000000000000110110111 P"
b11000 Q"
b11100 _"
b11000000011000000110010011 )
b11000000011000000110010011 1
b11000000011000000110010011 S
b11000000011000000110010011 ]
b11000000011000000110010011 j
1*
#90
0*
#95
b110000 T"
b11000000000110000 W"
b11000000011000000000000000 Y"
b100000100010 U"
b100011 X"
b110000 V"
b10011 n
b11 l
b10000 k
b1 o
b100100 `"
b0 #"
b10000000000000000000000011000 4"
b100000 O
b100000 c"
b100000 (
b100000 2
b100000 Q
b100000 a"
b0 d"
b0 A"
b100000 D"
b0 C"
b11100 T
b11100 S"
b11000000011000000110010011 P"
b11100 Q"
b100000 _"
b1000 F"
b0 E"
b110111 H"
b0 M"
b0 K"
b11 J"
b10000000000000000000000000000 G"
b11000 I"
b10100 :"
b10 ;"
b100011 <"
b0 ="
b0 8"
b10011 \"
b100000 Z"
1N
b110010000000000001000010011 )
b110010000000000001000010011 1
b110010000000000001000010011 S
b110010000000000001000010011 ]
b110010000000000001000010011 j
1*
#100
0*
#105
b0 X
b0 i
0J
0H
0L
0I
0G
0M
b10 A"
b0 D"
b110000 %"
b110000 $"
b110000 ,"
b1 ("
b1 '"
b110000 ""
b11111111111111111111111111010000 +"
b110000 }
b110000 !"
b1001100 4"
b1100100 T"
b1100100 W"
b110010000000000000000000000 Y"
b1100100 U"
b1100100 X"
b1100100 V"
b100 m
b0 l
b100 k
b11 o
b0 O
b0 c"
b0 P
b0 b"
b100100 (
b100100 2
b100100 Q
b100100 a"
b101000 `"
1N
b1111 U
b1111 7"
1W
b0 V
b0 6"
b0 Y
b0 5"
b100011 \"
b0 ]"
b0 Z"
b10000000000000000000000011000 :"
b0 ;"
b110111 <"
b11 ="
b1 F"
b10011 H"
b10000 M"
b11 K"
b110000 G"
b11100 I"
b100000 T
b100000 S"
b110010000000000001000010011 P"
b100000 Q"
b100100 _"
b10000011010000010100011 )
b10000011010000010100011 1
b10000011010000010100011 S
b10000011010000010100011 ]
b10000011010000010100011 j
1*
#110
0*
#115
b1 T"
b11010000000000100 W"
b10000011010000000000000 Y"
b100000000000 U"
b1 X"
b100 V"
b100011 n
b1 m
b10 p
b11 l
b0 o
b101100 `"
b1100100 %"
b1100100 $"
b1100100 ,"
b1100100 ""
b11111111111111111111111110011100 +"
b1100100 }
b1100100 !"
b10000100 4"
b11 P
b11 b"
b101000 (
b101000 2
b101000 Q
b101000 a"
b0 A"
b110000 C"
b100100 T
b100100 S"
b10000011010000010100011 P"
b100100 Q"
b101000 _"
b11 F"
b100 M"
b0 K"
b100 J"
b1100100 G"
b100000 I"
b1001100 :"
b10011 <"
b110000 8"
b0 U
b0 7"
0W
b110111 \"
b11 ]"
b0 ["
0N
b100000000001010010011 )
b100000000001010010011 1
b100000000001010010011 S
b100000000001010010011 ]
b100000000001010010011 j
1*
#120
0*
#125
b1100100 f"
b110000 d"
b10 B"
b1 A"
b110000 D"
b1100100 C"
b1 %"
b1 $"
b1 ,"
b1 ""
b11111111111111111111111111111111 +"
b1 }
b11 #"
b1 !"
b100101 4"
b100000000000 W"
b100000000000000000000 Y"
b100000000100 U"
b101 X"
b1 V"
b10011 n
b101 m
b0 p
b0 l
b1 k
b110000 O
b110000 c"
b101100 (
b101100 2
b101100 Q
b101100 a"
b110000 `"
1N
b10011 \"
b110000 Z"
b10000100 :"
b100 ="
b1100100 8"
b0 F"
b10 E"
b100011 H"
b11 K"
b1 J"
b1 G"
b100100 I"
b101000 T
b101000 S"
b100000000001010010011 P"
b101000 Q"
b101100 _"
b10100011010000100100011 )
b10100011010000100100011 1
b10100011010000100100011 S
b10100011010000100100011 ]
b10100011010000100100011 j
1*
#130
0*
#135
b10 T"
b11010100000000100 W"
b10100011010000000000000 Y"
b10 U"
b10 X"
b101 V"
b100011 n
b10 m
b10 p
b11 l
b101 k
b110100 `"
b0 #"
b101001 4"
0/"
11"
0."
10"
12"
0-"
b10101010 g"
b1100100 O
b1100100 c"
b100 P
b100 b"
b110000 (
b110000 2
b110000 Q
b110000 a"
b1 f"
b0 d"
b0 A"
b1100100 D"
b1 C"
b101100 T
b101100 S"
b10100011010000100100011 P"
b101100 Q"
b110000 _"
b0 E"
b10011 H"
b1 M"
b0 K"
b101 J"
b10101010 N"
b101000 I"
b100101 :"
b10 ;"
b100011 <"
b1 ="
b1100100 >"
b1 8"
b100 ]"
b1100100 Z"
1N
b10000001100110111 )
b10000001100110111 1
b10000001100110111 S
b10000001100110111 ]
b10000001100110111 j
1*
#140
0*
#145
b110000 d"
b1 D"
b0 %"
b110010 $"
b1100 )"
b1100 *"
b110010 ,"
b0 ("
b0 '"
b10 ""
b110000 |
b11000000 &"
b101110 +"
b110010 }
b11 #"
b10 !"
b110000 {
b101110 4"
1/"
01"
1."
00"
b0 g"
b110000 e"
b10000000000000000 T"
b10000000000000000 W"
b10000000000000000 Y"
b110 U"
b110 X"
b0 V"
b110111 n
b110 m
b0 p
b10 l
b0 k
b1 O
b1 c"
b1 P
b1 b"
b110100 (
b110100 2
b110100 Q
b110100 a"
b111000 `"
1N
b1111 U
b1111 7"
1W
b1100100 V
b1100100 6"
b1 Y
b1 5"
b100011 \"
b1 ]"
b1 Z"
b101001 :"
b0 ;"
b10011 <"
b101 ="
b1 >"
b10 E"
b100011 H"
b101 M"
b11 K"
b10 J"
b10 G"
b0 N"
b110000 L"
b101100 I"
b110000 T
b110000 S"
b10000001100110111 P"
b110000 Q"
b110100 _"
b1001000000000001110010011 )
b1001000000000001110010011 1
b1001000000000001110010011 S
b1001000000000001110010011 ]
b1001000000000001110010011 j
1*
#150
0*
#155
b10010 T"
b10010 W"
b1001000000000000000000000 Y"
b100000000110 U"
b111 X"
b10010 V"
b10011 n
b111 m
b0 l
b10010 k
b111100 `"
b100000 %"
b100000 $"
b100000 )"
b100000 *"
b100000 ,"
b0 ""
b100000 |
b100000 &"
b100000 +"
b100000 }
b0 #"
b0 !"
b100000 {
b10000000000110000 4"
b100000 e"
b101 P
b101 b"
b111000 (
b111000 2
b111000 Q
b111000 a"
b0 f"
b0 d"
b0 B"
b10 A"
b0 C"
b110100 T
b110100 S"
b1001000000000001110010011 P"
b110100 Q"
b111000 _"
b0 E"
b110111 H"
b0 M"
b10 K"
b110 J"
b10000000000000000 G"
b100000 L"
b110000 I"
b101110 :"
b10 ;"
b100011 <"
b10 ="
b0 8"
b0 U
b0 7"
0W
b10011 \"
b101 ]"
0N
b11010000000000010000010011 )
b11010000000000010000010011 1
b11010000000000010000010011 S
b11010000000000010000010011 ]
b11010000000000010000010011 j
1*
#160
0*
#165
b0 A"
b0 D"
b100000 C"
b10010 %"
b10010 $"
b0 )"
b0 *"
b10010 ,"
b1 ("
b1 '"
b10010 ""
b0 |
b0 &"
b11111111111111111111111111101110 +"
b10010 }
b10010 !"
b0 {
b1000110 4"
02"
1-"
b0 e"
b110100 T"
b110100 W"
b11010000000000000000000000 Y"
b101000 U"
b101000 X"
b110100 V"
b1000 m
b10100 k
b1 o
b0 O
b0 c"
b10 P
b10 b"
b111100 (
b111100 2
b111100 Q
b111100 a"
b1000000 `"
1N
b1111 U
b1111 7"
1W
b1 V
b1 6"
b0 Y
b0 5"
b100011 \"
b10 ]"
b0 Z"
b10000000000110000 :"
b0 ;"
b110111 <"
b110 ="
b0 >"
b100000 8"
b10011 H"
b10010 M"
b0 K"
b111 J"
b10010 G"
b0 L"
b110100 I"
b111000 T
b111000 S"
b11010000000000010000010011 P"
b111000 Q"
b111100 _"
b11100110010000000100011 )
b11100110010000000100011 1
b11100110010000000100011 S
b11100110010000000100011 ]
b11100110010000000100011 j
1*
#170
0*
#175
b0 T"
b110010100000000110 W"
b11100110010000000000000 Y"
b0 U"
b0 X"
b111 V"
b100011 n
b0 m
b10 p
b110 l
b111 k
b0 o
b1000100 `"
b110100 %"
b110100 $"
b110100 ,"
b110100 ""
b11111111111111111111111111001100 +"
b110100 }
b110100 !"
b1101100 4"
b100000 O
b100000 c"
b110 P
b110 b"
b1000000 (
b1000000 2
b1000000 Q
b1000000 a"
b100000 D"
b10010 C"
b111100 T
b111100 S"
b11100110010000000100011 P"
b111100 Q"
b1000000 _"
b1 F"
b10100 M"
b1000 J"
b110100 G"
b111000 I"
b1000110 :"
b10011 <"
b111 ="
b10010 8"
b0 U
b0 7"
0W
b110111 \"
b110 ]"
b100000 Z"
0N
b100000110010000010100011 )
b100000110010000010100011 1
b100000110010000010100011 S
b100000110010000010100011 ]
b100000110010000010100011 j
1*
#180
0*
#185
b10010 f"
b1 B"
b10010 D"
b110100 C"
b0 %"
b0 $"
b0 ,"
b0 ("
b0 '"
b0 ""
b0 +"
b0 }
b11 #"
b0 !"
b111100 4"
b1 T"
b110010000000001000 W"
b100000110010000000000000 Y"
b100000000000 U"
b1 X"
b1000 V"
b1 m
b1000 k
b10010 O
b10010 c"
b111 P
b111 b"
b1000100 (
b1000100 2
b1000100 Q
b1000100 a"
b1001000 `"
1N
b10011 \"
b111 ]"
b10010 Z"
b1101100 :"
b1000 ="
b110100 8"
b0 F"
b10 E"
b100011 H"
b111 M"
b110 K"
b0 J"
b0 G"
b111100 I"
b1000000 T
b1000000 S"
b100000110010000010100011 P"
b1000000 Q"
b1000100 _"
b110010010010000011 )
b110010010010000011 1
b110010010010000011 S
b110010010010000011 ]
b110010010010000011 j
1*
#190
0*
#195
b0 T"
b110010000000000000 W"
b110010000000000000 Y"
b100000001000 U"
b1001 X"
b0 V"
b11 n
b1001 m
b0 k
b1001100 `"
b100001 $"
b10000 )"
b10000 *"
b100001 ,"
b1 ""
b100000 |
b1000000 &"
b11111 +"
b100001 }
b1 !"
b100000 {
b1000001 4"
12"
0-"
b100000 e"
b110100 O
b110100 c"
b1000 P
b1000 b"
b1001000 (
b1001000 2
b1001000 Q
b1001000 a"
b110100 f"
b100000 d"
b110100 D"
b0 C"
b1000100 T
b1000100 S"
b110010010010000011 P"
b1000100 Q"
b1001000 _"
b1000 M"
b1 J"
b1 G"
b100000 L"
b1000000 I"
b111100 :"
b10 ;"
b100011 <"
b0 ="
b10010 >"
b0 8"
b1000 ]"
b110100 Z"
1N
b10000110010010100000011 )
b10000110010010100000011 1
b10000110010010100000011 S
b10000110010010100000011 ]
b10000110010010100000011 j
1*
#200
0*
#205
b0 f"
b0 B"
b0 D"
b100000 $"
b100000 )"
b100000 *"
b100000 ,"
b0 ""
b100000 &"
b100000 +"
b100000 }
b0 !"
b1000100 4"
b100 T"
b110010000000000100 W"
b10000110010000000000000 Y"
b1010 U"
b1010 X"
b100 V"
b1010 m
b100 k
b0 O
b0 c"
b0 P
b0 b"
b1001100 (
b1001100 2
b1001100 Q
b1001100 a"
b1010000 `"
1N
b1111 U
b1111 7"
1W
b10010 V
b10010 6"
b100011 \"
b0 ]"
b0 Z"
b1000001 :"
b1 ="
b110100 >"
b11 H"
b0 M"
b1001 J"
b0 G"
b1000100 I"
b1001000 T
b1001000 S"
b10000110010010100000011 P"
b1001000 Q"
b1001100 _"
b101001001000010110110011 )
b101001001000010110110011 1
b101001001000010110110011 S
b101001001000010110110011 ]
b101001001000010110110011 j
1*
#210
0*
#215
1h"
b0 T"
b1001000000000001010 W"
b101001001000000000000000 Y"
b100000001010 U"
b1011 X"
b1010 V"
b110011 n
b1011 m
b0 p
b1001 l
b1010 k
b1010100 `"
b100100 $"
b10 )"
b10 *"
b100100 ,"
b100 ""
b1000000000 &"
b11100 +"
b100100 }
b100 !"
b1001100 4"
0/"
11"
0."
10"
b1100100 g"
b1 P
b1 b"
b1010000 (
b1010000 2
b1010000 Q
b1010000 a"
b1100100 f"
b1001100 T
b1001100 S"
b101001001000010110110011 P"
b1001100 Q"
b1010000 _"
b100 M"
b1010 J"
b100 G"
b1100100 N"
b1001000 I"
b1000100 :"
b11 <"
b1001 ="
b0 >"
b110100 V
b110100 6"
b1 ]"
0N
b11000010011 )
b11000010011 1
b11000010011 S
b11000010011 ]
b11000010011 j
1*
#220
0*
#225
b1001 P
b1001 b"
0h"
b0 U
b0 7"
b11 \"
b1001 ]"
b1001100 :"
b1010 ="
b1100100 >"
0O"
b10100000000011010010011 )
b10100000000011010010011 1
b10100000000011010010011 S
b10100000000011010010011 ]
b10100000000011010010011 j
1*
#230
0*
#235
b101 T"
b100000000100 W"
b10100000000000000000000 Y"
b100000001100 U"
b1101 X"
b101 V"
b10011 n
b1101 m
b0 l
b101 k
b1011000 `"
b0 $"
b0 )"
b0 *"
b0 ,"
b0 ""
b0 |
b0 &"
b0 +"
b0 }
b0 #"
b0 !"
b0 {
1/"
01"
1."
00"
02"
1-"
b0 g"
b0 e"
b1010 P
b1010 b"
b1010100 (
b1010100 2
b1010100 Q
b1010100 a"
b0 f"
b0 d"
b1 B"
b1010000 T
b1010000 S"
b10100000000011010010011 P"
b1010000 Q"
b1010100 _"
1O"
b0 E"
b110011 H"
b1010 M"
b1001 K"
b1011 J"
b0 G"
b0 N"
b0 L"
b1001100 I"
0?"
b1010 ]"
1N
1*
#240
0*
